{
    "level": 7,
    "colors": [
        "R"
    ],
    "formats": [
        "legacy"
    ],
    "type": "normal",
    "comment": "by Teruya Kakumae\n\n1st place at Grand Prix Shizuoka 2018",
    "signatures": [],
    "companions": [],
    "generals": [],
    "tags": [
        "Eldrazi"
    ],
    "slots": [
        {
            "name": "Eldrazi Mimic",
            "oracleId": "cddb3ec4-01a2-4f4d-a690-3486c73c3df8",
            "type": "Creature — Eldrazi",
            "quantity": 4,
            "comment": "",
            "board": "main"
        },
        {
            "name": "Endbringer",
            "oracleId": "db1ea6e0-4076-49dd-92f7-7e6d7eb65a27",
            "type": "Creature — Eldrazi",
            "quantity": 1,
            "comment": "",
            "board": "main"
        },
        {
            "name": "Endless One",
            "oracleId": "7a51780a-fa28-4ee0-94c7-4330800ca9cb",
            "type": "Creature — Eldrazi",
            "quantity": 4,
            "comment": "",
            "board": "main"
        },
        {
            "name": "Matter Reshaper",
            "oracleId": "38538aff-b6f9-4c30-992e-7fd78da3c44a",
            "type": "Creature — Eldrazi",
            "quantity": 4,
            "comment": "",
            "board": "main"
        },
        {
            "name": "Ulamog, the Ceaseless Hunger",
            "oracleId": "0bfa4512-e35a-4c93-b324-80ec659f5a97",
            "type": "Legendary Creature — Eldrazi",
            "quantity": 1,
            "comment": "",
            "board": "main"
        },
        {
            "name": "Oblivion Sower",
            "oracleId": "d39b9f64-dc9b-413f-8d05-e21ef46d6756",
            "type": "Creature — Eldrazi",
            "quantity": 3,
            "comment": "",
            "board": "main"
        },
        {
            "name": "Thought-Knot Seer",
            "oracleId": "cef7396d-2168-4282-bf38-670ca9eebd91",
            "type": "Creature — Eldrazi",
            "quantity": 4,
            "comment": "",
            "board": "main"
        },
        {
            "name": "Simian Spirit Guide",
            "oracleId": "44e0ffa3-8915-4c1f-8f1a-4aeea1365f07",
            "type": "Creature — Ape Spirit",
            "quantity": 1,
            "comment": "",
            "board": "main"
        },
        {
            "name": "Reality Smasher",
            "oracleId": "17c651c7-da4e-45e9-9a64-fad3e873123d",
            "type": "Creature — Eldrazi",
            "quantity": 4,
            "comment": "",
            "board": "main"
        },
        {
            "name": "Chalice of the Void",
            "oracleId": "74027ba4-a6ba-4696-baf1-60ef0b27ee0a",
            "type": "Artifact",
            "quantity": 4,
            "comment": "",
            "board": "main"
        },
        {
            "name": "Grim Monolith",
            "oracleId": "229d6627-1292-4ae1-8849-b0f956fa6540",
            "type": "Artifact",
            "quantity": 2,
            "comment": "",
            "board": "main"
        },
        {
            "name": "Thorn of Amethyst",
            "oracleId": "0c6c5336-9233-4ab1-9d55-79f20be7ea57",
            "type": "Artifact",
            "quantity": 2,
            "comment": "",
            "board": "main"
        },
        {
            "name": "Ancient Tomb",
            "oracleId": "23467047-6dba-4498-b783-1ebc4f74b8c2",
            "type": "Land",
            "quantity": 4,
            "comment": "",
            "board": "main"
        },
        {
            "name": "Cavern of Souls",
            "oracleId": "89ca686a-7c72-4d8f-9290-e89635624a83",
            "type": "Land",
            "quantity": 4,
            "comment": "",
            "board": "main"
        },
        {
            "name": "City of Traitors",
            "oracleId": "f161111d-9747-47b3-bb10-3c8bded32e21",
            "type": "Land",
            "quantity": 3,
            "comment": "",
            "board": "main"
        },
        {
            "name": "Eldrazi Temple",
            "oracleId": "7fab8d65-af51-47d3-8f10-2676bf6e8ba3",
            "type": "Land",
            "quantity": 4,
            "comment": "",
            "board": "main"
        },
        {
            "name": "Wasteland",
            "oracleId": "09a70ae8-3859-4a09-901d-dce063fa3b5f",
            "type": "Land",
            "quantity": 4,
            "comment": "",
            "board": "main"
        },
        {
            "name": "Wastes",
            "oracleId": "05d24b0c-904a-46b6-b42a-96a4d91a0dd4",
            "type": "Basic Land",
            "quantity": 3,
            "comment": "",
            "board": "main"
        },
        {
            "name": "Urborg, Tomb of Yawgmoth",
            "oracleId": "db6174d7-211d-4817-b8e4-8384594c83f9",
            "type": "Legendary Land",
            "quantity": 1,
            "comment": "",
            "board": "main"
        },
        {
            "name": "Eye of Ugin",
            "oracleId": "10d13ff6-c4d0-4753-8939-a8a90f0e92bb",
            "type": "Legendary Land",
            "quantity": 3,
            "comment": "",
            "board": "main"
        },
        {
            "name": "Ensnaring Bridge",
            "oracleId": "dade5835-ccaf-45e3-b9a3-46017e0384b3",
            "type": "Artifact",
            "quantity": 3,
            "comment": "",
            "board": "side"
        },
        {
            "name": "Leyline of the Void",
            "oracleId": "f4e32fc1-1b8d-441e-8e76-71f19f98e925",
            "type": "Enchantment",
            "quantity": 4,
            "comment": "",
            "board": "side"
        },
        {
            "name": "Ratchet Bomb",
            "oracleId": "255d752a-8251-4e4c-99d6-4a1648de1474",
            "type": "Artifact",
            "quantity": 3,
            "comment": "",
            "board": "side"
        },
        {
            "name": "Sorcerous Spyglass",
            "oracleId": "b2187f45-80ae-4ac4-9f83-5eb7a00978e2",
            "type": "Artifact",
            "quantity": 2,
            "comment": "",
            "board": "side"
        },
        {
            "name": "Thorn of Amethyst",
            "oracleId": "0c6c5336-9233-4ab1-9d55-79f20be7ea57",
            "type": "Artifact",
            "quantity": 2,
            "comment": "",
            "board": "side"
        },
        {
            "name": "Umezawa's Jitte",
            "oracleId": "1da10d5c-36a8-473f-a5d4-782ad61d8057",
            "type": "Legendary Artifact — Equipment",
            "quantity": 1,
            "comment": "",
            "board": "side"
        }
    ]
}